{
    "connect":{"en":"Connect","fr":"Connexion"},
    "community":{"en":"Community","fr":"Communauté"},
    "learn":{"en":"Learn","fr":"Apprendre"},
    "about":{"en":"About","fr":"A propos"},
    "api":{"en":"API","fr":"API"}
}